project/tangnano9k/vector06cc/src/gao1_core0_window0.vcd
$comment
Copyright (C) 2015-2023 Gowin Semiconductor Corporation.
$end
$date
  11/04/2024 18:44:46
$end
$timescale
  1 ps
$end
$scope
module vector06cc
$end
$var
reg 1 ! clk48
$end
$var
reg 1 " A[15]
$end
$var
reg 1 # A[14]
$end
$var
reg 1 $ A[13]
$end
$var
reg 1 % A[12]
$end
$var
reg 1 & A[11]
$end
$var
reg 1 ' A[10]
$end
$var
reg 1 ( A[9]
$end
$var
reg 1 ) A[8]
$end
$var
reg 1 * A[7]
$end
$var
reg 1 + A[6]
$end
$var
reg 1 , A[5]
$end
$var
reg 1 - A[4]
$end
$var
reg 1 . A[3]
$end
$var
reg 1 / A[2]
$end
$var
reg 1 0 A[1]
$end
$var
reg 1 1 A[0]
$end
$var
reg 1 2 DI[7]
$end
$var
reg 1 3 DI[6]
$end
$var
reg 1 4 DI[5]
$end
$var
reg 1 5 DI[4]
$end
$var
reg 1 6 DI[3]
$end
$var
reg 1 7 DI[2]
$end
$var
reg 1 8 DI[1]
$end
$var
reg 1 9 DI[0]
$end
$var
reg 1 : WR_n
$end
$var
reg 1 ; memcpubusy_wr
$end
$var
reg 1 < memvidbusy_rd
$end
$var
reg 1 = psram_rd_vid
$end
$var
reg 1 > psram_wr_cpu
$end
$var
reg 1 ? psram_rd_cpu
$end
$var
reg 1 @ psram_busy
$end
$var
reg 1 A mem_ctrl/state[2]
$end
$var
reg 1 B mem_ctrl/state[1]
$end
$var
reg 1 C mem_ctrl/state[0]
$end
$var
reg 1 D mem_ctrl/wait_for_rd_data
$end
$var
reg 1 E mem_ctrl/wait_for_rd_data2
$end
$upscope
$end
$enddefinitions
$end
#0
$dumpvars
0!
X"
X#
X$
X%
X&
X'
X(
X)
X*
X+
X,
X-
X.
X/
X0
X1
X2
X3
X4
X5
X6
X7
X8
X9
X:
X;
X<
X=
X>
X?
X@
XA
XB
XC
XD
XE
$end
#500000
$comment Sample 0 (Start) $end
$comment Sample 0 (Trigger) $end
1!
0"
0#
0$
0%
0&
0'
0(
0)
0*
0+
1,
0-
0.
0/
00
11
02
03
04
05
06
07
08
09
1:
0;
0<
0=
0>
0?
1@
0A
0B
0C
0D
0E
#1000000
0!

#1500000
1!
1C
#2000000
0!

#2500000
1!
#3000000
0!

#3500000
1!
#4000000
0!

#4500000
1!
#5000000
0!

#5500000
1!
#6000000
0!

#6500000
1!
1=
0@
1B
0C
#7000000
0!

#7500000
1!
1@
1C
#8000000
0!

#8500000
1!
0=
#9000000
0!

#9500000
1!
#10000000
0!

#10500000
1!
#11000000
0!

#11500000
1!
#12000000
0!

#12500000
1!
#13000000
0!

#13500000
1!
#14000000
0!

#14500000
1!
#15000000
0!

#15500000
1!
#16000000
0!

#16500000
1!
1D
#17000000
0!

#17500000
1!
#18000000
0!

#18500000
1!
0D
1E
#19000000
0!

#19500000
1!
0@
0C
0E
