project/tangnano9k/vector06cc/src/gao2_core0_window0.vcd
$comment
Copyright (C) 2015-2023 Gowin Semiconductor Corporation.
$end
$date
  11/04/2024 22:53:19
$end
$timescale
  1 ps
$end
$scope
module vector06cc
$end
$var
reg 1 ! clk48
$end
$var
reg 1 " A[15]
$end
$var
reg 1 # A[14]
$end
$var
reg 1 $ A[13]
$end
$var
reg 1 % A[12]
$end
$var
reg 1 & A[11]
$end
$var
reg 1 ' A[10]
$end
$var
reg 1 ( A[9]
$end
$var
reg 1 ) A[8]
$end
$var
reg 1 * A[7]
$end
$var
reg 1 + A[6]
$end
$var
reg 1 , A[5]
$end
$var
reg 1 - A[4]
$end
$var
reg 1 . A[3]
$end
$var
reg 1 / A[2]
$end
$var
reg 1 0 A[1]
$end
$var
reg 1 1 A[0]
$end
$var
reg 1 2 DI[7]
$end
$var
reg 1 3 DI[6]
$end
$var
reg 1 4 DI[5]
$end
$var
reg 1 5 DI[4]
$end
$var
reg 1 6 DI[3]
$end
$var
reg 1 7 DI[2]
$end
$var
reg 1 8 DI[1]
$end
$var
reg 1 9 DI[0]
$end
$var
reg 1 : DO[7]
$end
$var
reg 1 ; DO[6]
$end
$var
reg 1 < DO[5]
$end
$var
reg 1 = DO[4]
$end
$var
reg 1 > DO[3]
$end
$var
reg 1 ? DO[2]
$end
$var
reg 1 @ DO[1]
$end
$var
reg 1 A DO[0]
$end
$var
reg 1 B SYNC
$end
$var
reg 1 C WR_n
$end
$var
reg 1 D DBIN
$end
$var
reg 1 E CPU/STACK
$end
$var
reg 1 F memcpubusy_wr
$end
$var
reg 1 G memvidbusy_rd
$end
$var
reg 1 H psram_rd_vid
$end
$var
reg 1 I psram_wr_cpu
$end
$var
reg 1 J psram_rd_cpu
$end
$var
reg 1 K psram_busy
$end
$var
reg 1 L video_palette_wren_delayed
$end
$var
reg 1 M iports_write
$end
$var
reg 1 N video_palette_wren
$end
$upscope
$end
$enddefinitions
$end
#0
$dumpvars
0!
X"
X#
X$
X%
X&
X'
X(
X)
X*
X+
X,
X-
X.
X/
X0
X1
X2
X3
X4
X5
X6
X7
X8
X9
X:
X;
X<
X=
X>
X?
X@
XA
XB
XC
XD
XE
XF
XG
XH
XI
XJ
XK
XL
XM
XN
$end
#500000
$comment Sample 0 (Start) $end
$comment Sample 0 (Trigger) $end
1!
1"
1#
0$
1%
1&
1'
0(
0)
1*
1+
1,
0-
1.
1/
10
11
02
03
04
05
06
17
08
09
0:
0;
0<
0=
0>
1?
0@
0A
1B
1C
0D
1E
0F
0G
0H
0I
0J
0K
0L
0M
0N
#1000000
0!

#1500000
1!
#2000000
0!

#2500000
1!
07
#3000000
0!

#3500000
1!
#4000000
0!

#4500000
1!
#5000000
0!

#5500000
1!
#6000000
0!

#6500000
1!
#7000000
0!

#7500000
1!
#8000000
0!

#8500000
1!
#9000000
0!

#9500000
1!
#10000000
0!

#10500000
1!
#11000000
0!

#11500000
1!
#12000000
0!

#12500000
1!
#13000000
0!

#13500000
1!
#14000000
0!

#14500000
1!
#15000000
0!

#15500000
1!
#16000000
0!

#16500000
1!
0?
0B
#17000000
0!

#17500000
1!
#18000000
0!

#18500000
1!
#19000000
0!

#19500000
1!
#20000000
0!

#20500000
1!
#21000000
0!

#21500000
1!
#22000000
0!

#22500000
1!
#23000000
0!

#23500000
1!
#24000000
0!

#24500000
1!
#25000000
0!

#25500000
1!
#26000000
0!

#26500000
1!
1H
#27000000
0!

#27500000
1!
1G
1K
#28000000
0!

#28500000
1!
0H
#29000000
0!

#29500000
1!
#30000000
0!

#30500000
1!
#31000000
0!

#31500000
1!
#32000000
0!

#32500000
1!
0C
1I
#33000000
0!

#33500000
1!
#34000000
0!

#34500000
1!
#35000000
0!

#35500000
1!
#36000000
0!

#36500000
1!
#37000000
0!

#37500000
1!
#38000000
0!

#38500000
1!
#39000000
0!

#39500000
1!
0K
#40000000
0!

#40500000
1!
0G
1K
#41000000
0!

#41500000
1!
#42000000
0!

#42500000
1!
#43000000
0!

#43500000
1!
#44000000
0!

#44500000
1!
#45000000
0!

#45500000
1!
0K
#46000000
0!

#46500000
1!
1K
#47000000
0!

#47500000
1!
#48000000
0!

#48500000
1!
#49000000
0!

#49500000
1!
#50000000
0!

#50500000
1!
#51000000
0!

#51500000
1!
0K
#52000000
0!

#52500000
1!
1K
#53000000
0!

#53500000
1!
#54000000
0!

#54500000
1!
#55000000
0!

#55500000
1!
#56000000
0!

#56500000
1!
#57000000
0!

#57500000
1!
0K
#58000000
0!

#58500000
1!
1K
#59000000
0!

#59500000
1!
#60000000
0!

#60500000
1!
#61000000
0!

#61500000
1!
#62000000
0!

#62500000
1!
#63000000
0!

#63500000
1!
0K
#64000000
0!

#64500000
1!
01
1?
1B
1C
0I
1K
#65000000
0!

#65500000
1!
#66000000
0!

#66500000
1!
#67000000
0!

#67500000
1!
#68000000
0!

#68500000
1!
#69000000
0!

#69500000
1!
0K
#70000000
0!

#70500000
1!
#71000000
0!

#71500000
1!
#72000000
0!

#72500000
1!
#73000000
0!

#73500000
1!
#74000000
0!

#74500000
1!
#75000000
0!

#75500000
1!
#76000000
0!

#76500000
1!
#77000000
0!

#77500000
1!
#78000000
0!

#78500000
1!
#79000000
0!

#79500000
1!
#80000000
0!

#80500000
1!
1;
1>
0?
1@
0B
#81000000
0!

#81500000
1!
#82000000
0!

#82500000
1!
#83000000
0!

#83500000
1!
#84000000
0!

#84500000
1!
#85000000
0!

#85500000
1!
#86000000
0!

#86500000
1!
#87000000
0!

#87500000
1!
#88000000
0!

#88500000
1!
#89000000
0!

#89500000
1!
#90000000
0!

#90500000
1!
1H
#91000000
0!

#91500000
1!
1G
1K
#92000000
0!

#92500000
1!
0H
#93000000
0!

#93500000
1!
#94000000
0!

#94500000
1!
#95000000
0!

#95500000
1!
#96000000
0!

#96500000
1!
0C
1I
#97000000
0!

#97500000
1!
#98000000
0!

#98500000
1!
#99000000
0!

#99500000
1!
#100000000
0!

#100500000
1!
#101000000
0!

#101500000
1!
#102000000
0!

#102500000
1!
#103000000
0!

#103500000
1!
0K
#104000000
0!

#104500000
1!
0G
1K
#105000000
0!

#105500000
1!
#106000000
0!

#106500000
1!
#107000000
0!

#107500000
1!
#108000000
0!

#108500000
1!
#109000000
0!

#109500000
1!
0K
#110000000
0!

#110500000
1!
1K
#111000000
0!

#111500000
1!
#112000000
0!

#112500000
1!
#113000000
0!

#113500000
1!
#114000000
0!

#114500000
1!
#115000000
0!

#115500000
1!
0K
#116000000
0!

#116500000
1!
1K
#117000000
0!

#117500000
1!
#118000000
0!

#118500000
1!
#119000000
0!

#119500000
1!
#120000000
0!

#120500000
1!
#121000000
0!

#121500000
1!
0K
#122000000
0!

#122500000
1!
1K
#123000000
0!

#123500000
1!
#124000000
0!

#124500000
1!
#125000000
0!

#125500000
1!
#126000000
0!

#126500000
1!
#127000000
0!

#127500000
1!
11
0K
#128000000
0!

#128500000
1!
0"
0#
0%
0&
0+
0,
1-
0.
0/
00
1:
0;
1<
0>
1B
1C
0E
0I
1K
#129000000
0!

#129500000
1!
#130000000
0!

#130500000
1!
12
13
15
17
19
#131000000
0!

#131500000
1!
#132000000
0!

#132500000
1!
#133000000
0!

#133500000
1!
0K
#134000000
0!

#134500000
1!
#135000000
0!

#135500000
1!
#136000000
0!

#136500000
1!
#137000000
0!

#137500000
1!
#138000000
0!

#138500000
1!
#139000000
0!

#139500000
1!
#140000000
0!

#140500000
1!
#141000000
0!

#141500000
1!
#142000000
0!

#142500000
1!
#143000000
0!

#143500000
1!
#144000000
0!

#144500000
1!
0:
0<
0@
0B
1D
#145000000
0!

#145500000
1!
#146000000
0!

#146500000
1!
#147000000
0!

#147500000
1!
#148000000
0!

#148500000
1!
#149000000
0!

#149500000
1!
#150000000
0!

#150500000
1!
#151000000
0!

#151500000
1!
#152000000
0!

#152500000
1!
#153000000
0!

#153500000
1!
#154000000
0!

#154500000
1!
1H
#155000000
0!

#155500000
1!
1G
1K
#156000000
0!

#156500000
1!
0H
#157000000
0!

#157500000
1!
#158000000
0!

#158500000
1!
#159000000
0!

#159500000
1!
#160000000
0!

#160500000
1!
#161000000
0!

#161500000
1!
#162000000
0!

#162500000
1!
#163000000
0!

#163500000
1!
#164000000
0!

#164500000
1!
#165000000
0!

#165500000
1!
#166000000
0!

#166500000
1!
#167000000
0!

#167500000
1!
0K
#168000000
0!

#168500000
1!
0G
#169000000
0!

#169500000
1!
#170000000
0!

#170500000
1!
#171000000
0!

#171500000
1!
#172000000
0!

#172500000
1!
#173000000
0!

#173500000
1!
#174000000
0!

#174500000
1!
#175000000
0!

#175500000
1!
#176000000
0!

#176500000
1!
0D
